<?xml version="1.0" encoding="utf-8"?>

<svg version="1.1" xmlns="http://www.w3.org/2000/svg" xmlns:xlink="http://www.w3.org/1999/xlink" x="0px" y="0px">

	<path fill="#FFFFFF" fill-opacity="0.5" d="M19,16.2l-4-4c0.6-1.1,1-2.3,1-3.7C16,4.4,12.6,1,8.5,1S1,4.4,1,8.5S4.4,16,8.5,16c1.3,0,2.6-0.4,3.7-1l4,4L19,16.2z" />

	<polygon fill="#000000" points="11,8 9,8 9,6 8,6 8,8 6,8 6,9 8,9 8,11 9,11 9,9 11,9 "/>
	<path fill="#000000" d="M13.7,12.3c0.8-1.1,1.3-2.4,1.3-3.8C15,4.9,12.1,2,8.5,2S2,4.9,2,8.5S4.9,15,8.5,15c1.4,0,2.8-0.5,3.8-1.3l3.8,3.8l1.4-1.4 L13.7,12.3z M8.5,13C6,13,4,11,4,8.5S6,4,8.5,4S13,6,13,8.5S11,13,8.5,13z" />

</svg>
