<?xml version="1.0" encoding="utf-8"?>

<svg xmlns="http://www.w3.org/2000/svg" xmlns:xlink="http://www.w3.org/1999/xlink" x="0" y="0">

    <circle cx="24" cy="24" r="24" fill="#4791CE" fill-opacity="0.25"/>
    <polygon points="14,18 14,30 6,24" fill="#ffffff"/>
    <polygon points="34,30 34,18 42,24" fill="#ffffff"/>
    <polygon points="30,14 18,14 24,6" fill="#ffffff"/>
    <polygon points="18,34 30,34 24,42" fill="#ffffff"/>

</svg>
