<?xml version="1.0" encoding="utf-8"?>

<svg xmlns="http://www.w3.org/2000/svg"
     xmlns:xlink="http://www.w3.org/1999/xlink"
     x="0"
     y="0">

    <circle cx="24" cy="24" r="24" fill="#4791CE" fill-opacity="0.25"/>
    <polygon points="18,30 30,30 24,38" fill="#ffffff"/>
    <polygon points="30,18 18,18 24,10" fill="#ffffff"/>
    <rect x="8" y="20" width="32" height="1" fill="#ffffff"/>
    <rect x="8" y="27" width="32" height="1" fill="#ffffff"/>

</svg>