<?xml version="1.0" encoding="utf-8"?>

<svg xmlns="http://www.w3.org/2000/svg" xmlns:xlink="http://www.w3.org/1999/xlink" x="0" y="0">

    <circle cx="24" cy="24" r="24" fill="#4791CE" fill-opacity="0.25"/>
    <polygon points="18,26 30,26 24,34" fill="#ffffff"/>
    <polygon points="30,22 18,22 24,14" fill="#ffffff"/>

</svg>
